Multi_Cycle/MIPS_wave.vcd
$date
	Sun Nov 27 12:00:37 2022
$end
$version
	Icarus Verilog
$end
$timescale
	1ps
$end
$scope module tb_MIPS_Multi_Cycle $end
$var reg 1 ! clk $end
$var reg 32 " cnt [31:0] $end
$var reg 1 # rst_n $end
$scope module u_MIPS_Multi_Cycle $end
$var wire 1 $ PCEn $end
$var wire 1 ! clk $end
$var wire 1 # rst_n $end
$var wire 1 % Zero $end
$var wire 32 & WriteRegData [31:0] $end
$var wire 5 ' WriteReg [4:0] $end
$var wire 32 ( SignImm [31:0] $end
$var wire 1 ) RegWrite $end
$var wire 1 * RegDst $end
$var wire 1 + PCWrite $end
$var wire 2 , PCSrc [1:0] $end
$var wire 32 - PC [31:0] $end
$var wire 1 . MemtoReg $end
$var wire 1 / MemWrite $end
$var wire 1 0 IorD $end
$var wire 32 1 Instr [31:0] $end
$var wire 1 2 IRWrite $end
$var wire 32 3 Data [31:0] $end
$var wire 1 4 Branch $end
$var wire 32 5 B [31:0] $end
$var wire 32 6 Adr [31:0] $end
$var wire 2 7 ALUSrcB [1:0] $end
$var wire 1 8 ALUSrcA $end
$var wire 32 9 ALUResult [31:0] $end
$var wire 32 : ALUOut [31:0] $end
$var wire 2 ; ALUOp [1:0] $end
$var wire 3 < ALUControl [2:0] $end
$var wire 32 = A [31:0] $end
$scope module u_ALU $end
$var wire 1 ! clk $end
$var wire 1 % Zero $end
$var wire 32 > SignImm [31:0] $end
$var wire 32 ? PC [31:0] $end
$var wire 32 @ B [31:0] $end
$var wire 2 A ALUSrcB [1:0] $end
$var wire 1 8 ALUSrcA $end
$var wire 3 B ALUControl [2:0] $end
$var wire 32 C A [31:0] $end
$var reg 32 D ALUOut [31:0] $end
$var reg 32 E ALUResult [31:0] $end
$var reg 32 F SrcA [31:0] $end
$var reg 32 G SrcB [31:0] $end
$upscope $end
$scope module u_ALU_Control_Unit $end
$var wire 6 H Funct [5:0] $end
$var wire 2 I ALUOp [1:0] $end
$var reg 3 J ALUControl [2:0] $end
$upscope $end
$scope module u_Control_Unit $end
$var wire 6 K Opcode [5:0] $end
$var wire 1 ! clk $end
$var wire 1 # rst_n $end
$var parameter 4 L S0_Fetch $end
$var parameter 4 M S10_ADDI_Writeback $end
$var parameter 4 N S11_Jump $end
$var parameter 4 O S1_Decode $end
$var parameter 4 P S2_MemAdr $end
$var parameter 4 Q S3_MemRead $end
$var parameter 4 R S4_MemWriteback $end
$var parameter 4 S S5_MemWrite $end
$var parameter 4 T S6_Execute $end
$var parameter 4 U S7_ALU_Writeback $end
$var parameter 4 V S8_Branch $end
$var parameter 4 W S9_ADDI $end
$var reg 2 X ALUOp [1:0] $end
$var reg 1 8 ALUSrcA $end
$var reg 2 Y ALUSrcB [1:0] $end
$var reg 1 4 Branch $end
$var reg 4 Z Current_State [3:0] $end
$var reg 1 2 IRWrite $end
$var reg 1 0 IorD $end
$var reg 1 / MemWrite $end
$var reg 1 . MemtoReg $end
$var reg 4 [ Next_State [3:0] $end
$var reg 2 \ PCSrc [1:0] $end
$var reg 1 + PCWrite $end
$var reg 1 * RegDst $end
$var reg 1 ) RegWrite $end
$upscope $end
$scope module u_Imm_Sign_Extend $end
$var wire 16 ] Immediate [15:0] $end
$var wire 32 ^ SignImm [31:0] $end
$upscope $end
$scope module u_Instr_Data_Memory $end
$var wire 1 2 IRWrite $end
$var wire 1 / MemWrite $end
$var wire 1 ! clk $end
$var wire 32 _ WD [31:0] $end
$var wire 32 ` RD [31:0] $end
$var wire 32 a A [31:0] $end
$var reg 32 b Data [31:0] $end
$var reg 32 c Instr [31:0] $end
$var integer 32 d fd [31:0] $end
$upscope $end
$scope module u_PC_Counter $end
$var wire 32 e ALUOut [31:0] $end
$var wire 32 f ALUResult [31:0] $end
$var wire 1 0 IorD $end
$var wire 26 g Jump_low_26Bit [25:0] $end
$var wire 1 $ PCEn $end
$var wire 2 h PCSrc [1:0] $end
$var wire 1 ! clk $end
$var wire 1 # rst_n $end
$var wire 32 i Adr [31:0] $end
$var reg 32 j PC [31:0] $end
$var reg 32 k PC_Next [31:0] $end
$upscope $end
$scope module u_Reg_File $end
$var wire 5 l A1 [4:0] $end
$var wire 5 m A2 [4:0] $end
$var wire 5 n A3 [4:0] $end
$var wire 32 o RD1 [31:0] $end
$var wire 32 p RD2 [31:0] $end
$var wire 1 ) RegWrite $end
$var wire 32 q WD3 [31:0] $end
$var wire 1 ! clk $end
$var reg 32 r A [31:0] $end
$var reg 32 s B [31:0] $end
$upscope $end
$upscope $end
$upscope $end
$enddefinitions $end
$comment Show the parameter values. $end
$dumpall
b1001 W
b1000 V
b111 U
b110 T
b101 S
b100 R
b11 Q
b10 P
b1 O
b1011 N
b1010 M
b0 L
$end
#0
$dumpvars
bx s
bx r
bx q
bx p
bx o
bx n
bx m
bx l
bx k
bx j
bx i
bx h
bx g
bx f
bx e
b10000000000000000000000000000011 d
bx c
bx b
bx a
bx `
bx _
bx ^
bx ]
bx \
bx [
bx Z
bx Y
bx X
bx K
bx J
bx I
bx H
bx G
bx F
bx E
bx D
bx C
bx B
bx A
bx @
bx ?
bx >
bx =
bx <
bx ;
bx :
bx 9
x8
bx 7
bx 6
bx 5
x4
bx 3
x2
bx 1
x0
x/
x.
bx -
bx ,
x+
x*
x)
bx (
bx '
bx &
x%
x$
0#
b1 "
0!
$end
#10
0%
b100 k
b100 9
b100 E
b100 f
1$
b10 <
b10 B
b10 J
b100000000000100000000000000101 `
b0 6
b0 a
b0 i
b100 G
b0 F
b1 [
0)
04
1+
0/
12
b0 ,
b0 \
b0 h
b0 ;
b0 I
b0 X
b1 7
b1 A
b1 Y
08
00
b0 -
b0 ?
b0 j
b0 Z
1!
#20
b10 "
1#
0!
#30
0%
0$
b10100 G
b11000 k
b0x0 '
b0x0 n
b11000 9
b11000 E
b11000 f
b1001 [
0+
02
b11 7
b11 A
b11 Y
b101 H
b101 (
b101 >
b101 ^
b101 ]
b0 p
b10 m
b0 o
b0 l
b1000 K
b100000000000000101 g
b0x00000000000x0000000000000010x &
b0x00000000000x0000000000000010x q
b100000000000110000000000001100 `
b100 6
b100 a
b100 i
b100 F
b100 :
b100 D
b100 e
b1 Z
b100000000000100000000000000101 1
b100000000000100000000000000101 c
b100000000000100000000000000101 3
b100000000000100000000000000101 b
b100 -
b100 ?
b100 j
1!
#40
b11 "
0!
#50
b101 k
b101 9
b101 E
b101 f
b101 G
b0 F
b1010 [
b10 7
b10 A
b10 Y
18
b0x00000000000xx00000000000x1x00 &
b0x00000000000xx00000000000x1x00 q
b100000000000110000000000001100 3
b100000000000110000000000001100 b
b1001 Z
b0 5
b0 @
b0 _
b0 s
b0 =
b0 C
b0 r
b11000 :
b11000 D
b11000 e
1!
#60
b100 "
0!
#70
b10 '
b10 n
b101 &
b101 q
b0 [
1)
0.
0*
b101 :
b101 D
b101 e
b1010 Z
1!
#80
b101 "
0!
#90
b1000 k
b1000 9
b1000 E
b1000 f
1$
b100 G
b100 F
b1 [
0)
1+
12
b1 7
b1 A
b1 Y
08
b0 Z
b101 p
1!
#100
b110 "
0!
#110
0$
b110000 G
b111000 k
b11 '
b11 n
b111000 9
b111000 E
b111000 f
b1000 &
b1000 q
b1001 [
0+
02
b11 7
b11 A
b11 Y
b1100 H
b1100 (
b1100 >
b1100 ^
b1100 ]
b0 p
b11 m
b110000000000001100 g
b100000011001111111111111110111 `
b1000 6
b1000 a
b1000 i
b1000 F
b1000 :
b1000 D
b1000 e
b101 5
b101 @
b101 _
b101 s
b1 Z
b100000000000110000000000001100 1
b100000000000110000000000001100 c
b1000 -
b1000 ?
b1000 j
1!
#120
b111 "
0!
#130
b1100 k
b1100 9
b1100 E
b1100 f
b1100 G
b0 F
b1010 [
b10 7
b10 A
b10 Y
18
b111000 &
b111000 q
b100000011001111111111111110111 3
b100000011001111111111111110111 b
b1001 Z
b0 5
b0 @
b0 _
b0 s
b111000 :
b111000 D
b111000 e
1!
#140
b1000 "
0!
#150
b1100 &
b1100 q
b0 [
1)
b1100 :
b1100 D
b1100 e
b1010 Z
1!
#160
b1001 "
0!
#170
1$
b100 G
b1000 F
b1 [
0)
1+
12
b1 7
b1 A
b1 Y
08
b0 Z
b1100 p
1!
#180
b1010 "
0!
#190
0$
b11111111111111111111111111011100 G
b11111111111111111111111111101000 k
b111 '
b111 n
b11111111111111111111111111101000 9
b11111111111111111111111111101000 E
b11111111111111111111111111101000 f
b1001 [
0+
02
b11 7
b11 A
b11 Y
b110111 H
b11111111111111111111111111110111 (
b11111111111111111111111111110111 >
b11111111111111111111111111110111 ^
b1111111111110111 ]
b0 p
b111 m
b1100 o
b11 l
b11001111111111111110111 g
b111000100010000000100101 `
b1100 6
b1100 a
b1100 i
b1100 F
b1100 5
b1100 @
b1100 _
b1100 s
b1 Z
b100000011001111111111111110111 1
b100000011001111111111111110111 c
b1100 -
b1100 ?
b1100 j
1!
#200
b1011 "
0!
#210
b11 k
b11 9
b11 E
b11 f
b11111111111111111111111111110111 G
b1010 [
b10 7
b10 A
b10 Y
18
b11111111111111111111111111101000 &
b11111111111111111111111111101000 q
b111000100010000000100101 3
b111000100010000000100101 b
b1001 Z
b0 5
b0 @
b0 _
b0 s
b1100 =
b1100 C
b1100 r
b11111111111111111111111111101000 :
b11111111111111111111111111101000 D
b11111111111111111111111111101000 e
1!
#220
b1100 "
0!
#230
b11 &
b11 q
b0 [
1)
b11 :
b11 D
b11 e
b1010 Z
1!
#240
b1101 "
0!
#250
b10000 k
b10000 9
b10000 E
b10000 f
1$
b100 G
b1 [
0)
1+
12
b1 7
b1 A
b1 Y
08
b0 Z
b11 p
1!
#260
b1110 "
0!
#270
0$
b1000000010010100 G
b1000000010100100 k
b10 '
b10 n
b1000000010100100 9
b1000000010100100 E
b1000000010100100 f
b10000 &
b10000 q
b110 [
0+
02
b11 7
b11 A
b11 Y
b100101 H
b10000000100101 (
b10000000100101 >
b10000000100101 ^
b10000000100101 ]
b101 p
b10 m
b11 o
b111 l
b0 K
b111000100010000000100101 g
b11001000010100000100100 `
b10000 6
b10000 a
b10000 i
b10000 F
b10000 :
b10000 D
b10000 e
b11 5
b11 @
b11 _
b11 s
b1 Z
b111000100010000000100101 1
b111000100010000000100101 c
b10000 -
b10000 ?
b10000 j
1!
#280
b1111 "
0!
#290
b111 k
b111 9
b111 E
b111 f
b1 <
b1 B
b1 J
b101 G
b11 F
b111 [
b10 ;
b10 I
b10 X
b0 7
b0 A
b0 Y
18
b1000000010100100 &
b1000000010100100 q
b11001000010100000100100 3
b11001000010100000100100 b
b110 Z
b101 5
b101 @
b101 _
b101 s
b11 =
b11 C
b11 r
b1000000010100100 :
b1000000010100100 D
b1000000010100100 e
1!
#300
b10000 "
0!
#310
b100 '
b100 n
b111 &
b111 q
b0 [
1)
1*
b111 :
b111 D
b111 e
b111 Z
1!
#320
b10001 "
0!
#330
b10100 k
b10100 9
b10100 E
b10100 f
1$
b10 <
b10 B
b10 J
b100 G
b10000 F
b1 [
0)
1+
12
b0 ;
b0 I
b0 X
b1 7
b1 A
b1 Y
08
b0 Z
1!
#340
b10010 "
0!
#350
0$
b1010000010010000 G
b1010000010100100 k
b101 '
b101 n
b1010000010100100 9
b1010000010100100 E
b1010000010100100 f
b10100 &
b10100 q
b110 [
0+
02
b11 7
b11 A
b11 Y
b100100 H
b10100000100100 (
b10100000100100 >
b10100000100100 ^
b10100000100100 ]
b111 p
b100 m
b1100 o
b11 l
b11001000010100000100100 g
b101001000010100000100000 `
b10100 6
b10100 a
b10100 i
b10100 F
b10100 :
b10100 D
b10100 e
b1 Z
b11001000010100000100100 1
b11001000010100000100100 c
b10100 -
b10100 ?
b10100 j
1!
#360
b10011 "
0!
#370
b100 k
b100 9
b100 E
b100 f
b0 <
b0 B
b0 J
b111 G
b1100 F
b111 [
b10 ;
b10 I
b10 X
b0 7
b0 A
b0 Y
18
b1010000010100100 &
b1010000010100100 q
b101001000010100000100000 3
b101001000010100000100000 b
b110 Z
b111 5
b111 @
b111 _
b111 s
b1100 =
b1100 C
b1100 r
b1010000010100100 :
b1010000010100100 D
b1010000010100100 e
1!
#380
b10100 "
0!
#390
b100 &
b100 q
b0 [
1)
b100 :
b100 D
b100 e
b111 Z
1!
#400
b10101 "
0!
#410
b11000 k
b11000 9
b11000 E
b11000 f
1$
b10 <
b10 B
b10 J
b100 G
b10100 F
b1 [
0)
1+
12
b0 ;
b0 I
b0 X
b1 7
b1 A
b1 Y
08
b0 Z
1!
#420
b10110 "
0!
#430
0$
b1010000010000000 G
b1010000010011000 k
b1010000010011000 9
b1010000010011000 E
b1010000010011000 f
b11000 &
b11000 q
b110 [
0+
02
b11 7
b11 A
b11 Y
b100000 H
b10100000100000 (
b10100000100000 >
b10100000100000 ^
b10100000100000 ]
b100 o
b101 l
b101001000010100000100000 g
b10000101001110000000000001010 `
b11000 6
b11000 a
b11000 i
b11000 F
b11000 :
b11000 D
b11000 e
b1 Z
b101001000010100000100000 1
b101001000010100000100000 c
b11000 -
b11000 ?
b11000 j
1!
#440
b10111 "
0!
#450
b1011 k
b1011 9
b1011 E
b1011 f
b111 G
b100 F
b111 [
b10 ;
b10 I
b10 X
b0 7
b0 A
b0 Y
18
b1010000010011000 &
b1010000010011000 q
b10000101001110000000000001010 3
b10000101001110000000000001010 b
b110 Z
b100 =
b100 C
b100 r
b1010000010011000 :
b1010000010011000 D
b1010000010011000 e
1!
#460
b11000 "
0!
#470
b1011 &
b1011 q
b0 [
1)
b1011 :
b1011 D
b1011 e
b111 Z
1!
#480
b11001 "
0!
#490
b11100 k
b11100 9
b11100 E
b11100 f
1$
b100 G
b11000 F
b1 [
0)
1+
12
b0 ;
b0 I
b0 X
b1 7
b1 A
b1 Y
08
b0 Z
b1011 o
1!
#500
b11010 "
0!
#510
0$
b101000 G
b1000100 k
b0 '
b0 n
b1000100 9
b1000100 E
b1000100 f
b11100 &
b11100 q
b1000 [
0+
02
b11 7
b11 A
b11 Y
b1010 H
b1010 (
b1010 >
b1010 ^
b1010 ]
b11 p
b111 m
b100 K
b101001110000000000001010 g
b11001000010000000101010 `
b11100 6
b11100 a
b11100 i
b11100 F
b11100 :
b11100 D
b11100 e
b1011 =
b1011 C
b1011 r
b1 Z
b10000101001110000000000001010 1
b10000101001110000000000001010 c
b11100 -
b11100 ?
b11100 j
1!
#520
b11011 "
0!
#530
b1000 9
b1000 E
b1000 f
b110 <
b110 B
b110 J
b11 G
b1011 F
b0 [
14
b1 ,
b1 \
b1 h
b1 ;
b1 I
b1 X
b0 7
b0 A
b0 Y
18
b1000100 &
b1000100 q
b11001000010000000101010 3
b11001000010000000101010 b
b1000 Z
b11 5
b11 @
b11 _
b11 s
b1000100 :
b1000100 D
b1000100 e
1!
#540
b11100 "
0!
#550
b100000 9
b100000 E
b100000 f
1$
b10 <
b10 B
b10 J
b100 G
b11100 F
b100000 k
b1000 &
b1000 q
b1 [
04
1+
12
b0 ,
b0 \
b0 h
b0 ;
b0 I
b0 X
b1 7
b1 A
b1 Y
08
b1000 :
b1000 D
b1000 e
b0 Z
1!
#560
b11101 "
0!
#570
b1000000011001000 k
b1000000011001000 9
b1000000011001000 E
b1000000011001000 f
b100 '
b100 n
0$
b10000100000000000000000000001 `
b100000 6
b100000 a
b100000 i
b1000000010101000 G
b100000 F
b101010 H
b10000000101010 (
b10000000101010 >
b10000000101010 ^
b10000000101010 ]
b111 p
b100 m
b1100 o
b11 l
b0 K
b11001000010000000101010 g
b110 [
0+
02
b11 7
b11 A
b11 Y
b100000 &
b100000 q
b100000 -
b100000 ?
b100000 j
b11001000010000000101010 1
b11001000010000000101010 c
b1 Z
b100000 :
b100000 D
b100000 e
1!
#580
b11110 "
0!
#590
1%
b0 k
b0 9
b0 E
b0 f
b111 <
b111 B
b111 J
b1000000011001000 &
b1000000011001000 q
b111 G
b1100 F
b111 [
b10 ;
b10 I
b10 X
b0 7
b0 A
b0 Y
18
b1000000011001000 :
b1000000011001000 D
b1000000011001000 e
b111 5
b111 @
b111 _
b111 s
b1100 =
b1100 C
b1100 r
b110 Z
b10000100000000000000000000001 3
b10000100000000000000000000001 b
1!
#600
b11111 "
0!
#610
b0 [
1)
b0 &
b0 q
b111 Z
b0 :
b0 D
b0 e
1!
#620
b100000 "
0!
#630
0%
b100100 k
b100100 9
b100100 E
b100100 f
1$
b10 <
b10 B
b10 J
b100 G
b100000 F
b1 [
0)
1+
12
b0 ;
b0 I
b0 X
b1 7
b1 A
b1 Y
08
b0 p
b0 Z
1!
#640
b100001 "
0!
#650
b101000 k
b0 '
b0 n
0$
b101000 9
b101000 E
b101000 f
b100000000001010000000000000000 `
b100100 6
b100100 a
b100100 i
b1 H
b1 (
b1 >
b1 ^
b1 ]
b0 m
b0 o
b100 l
b100 K
b100000000000000000000001 g
b1000 [
0+
02
b11 7
b11 A
b11 Y
b100100 F
b100100 &
b100100 q
b100100 -
b100100 ?
b100100 j
b10000100000000000000000000001 1
b10000100000000000000000000001 c
b1 Z
b0 5
b0 @
b0 _
b0 s
b100100 :
b100100 D
b100100 e
1!
#660
b100010 "
0!
#670
1$
1%
b0 9
b0 E
b0 f
b110 <
b110 B
b110 J
b101000 &
b101000 q
b0 G
b0 F
b0 [
14
b1 ,
b1 \
b1 h
b1 ;
b1 I
b1 X
b0 7
b0 A
b0 Y
18
b101000 :
b101000 D
b101000 e
b0 =
b0 C
b0 r
b1000 Z
b100000000001010000000000000000 3
b100000000001010000000000000000 b
1!
#680
b100011 "
0!
#690
0%
b101100 9
b101100 E
b101100 f
b10 <
b10 B
b10 J
b111000100010000000101010 `
b101000 6
b101000 a
b101000 i
b100 G
b101000 F
b1 [
04
1+
12
b0 ,
b0 \
b0 h
b0 ;
b0 I
b0 X
b1 7
b1 A
b1 Y
08
b101100 k
b0 &
b0 q
b101000 -
b101000 ?
b101000 j
b0 Z
b0 :
b0 D
b0 e
1!
#700
b100100 "
0!
#710
0$
b1000000010101000 G
b1000000011010100 k
b100 '
b100 n
b1000000011010100 9
b1000000011010100 E
b1000000011010100 f
b101100 &
b101100 q
b110 [
0+
02
b11 7
b11 A
b11 Y
b101010 H
b10000000101010 (
b10000000101010 >
b10000000101010 ^
b10000000101010 ]
b101 p
b10 m
b11 o
b111 l
b0 K
b111000100010000000101010 g
b100001010011100000100000 `
b101100 6
b101100 a
b101100 i
b101100 F
b101100 :
b101100 D
b101100 e
b1 Z
b111000100010000000101010 1
b111000100010000000101010 c
b111000100010000000101010 3
b111000100010000000101010 b
b101100 -
b101100 ?
b101100 j
1!
#720
b100101 "
0!
#730
b1 k
b1 9
b1 E
b1 f
b111 <
b111 B
b111 J
b101 G
b11 F
b111 [
b10 ;
b10 I
b10 X
b0 7
b0 A
b0 Y
18
b1000000011010100 &
b1000000011010100 q
b100001010011100000100000 3
b100001010011100000100000 b
b110 Z
b101 5
b101 @
b101 _
b101 s
b11 =
b11 C
b11 r
b1000000011010100 :
b1000000011010100 D
b1000000011010100 e
1!
#740
b100110 "
0!
#750
b1 &
b1 q
b0 [
1)
b1 :
b1 D
b1 e
b111 Z
1!
#760
b100111 "
0!
#770
b110000 k
b110000 9
b110000 E
b110000 f
1$
b10 <
b10 B
b10 J
b100 G
b101100 F
b1 [
0)
1+
12
b0 ;
b0 I
b0 X
b1 7
b1 A
b1 Y
08
b0 Z
1!
#780
b101000 "
0!
#790
0$
b1110000010000000 G
b1110000010110000 k
b111 '
b111 n
b1110000010110000 9
b1110000010110000 E
b1110000010110000 f
b110000 &
b110000 q
b110 [
0+
02
b11 7
b11 A
b11 Y
b100000 H
b11100000100000 (
b11100000100000 >
b11100000100000 ^
b11100000100000 ]
b1011 p
b101 m
b1 o
b100 l
b100001010011100000100000 g
b111000100011100000100010 `
b110000 6
b110000 a
b110000 i
b110000 F
b110000 :
b110000 D
b110000 e
b1 Z
b100001010011100000100000 1
b100001010011100000100000 c
b110000 -
b110000 ?
b110000 j
1!
#800
b101001 "
0!
#810
b1100 k
b1100 9
b1100 E
b1100 f
b1011 G
b1 F
b111 [
b10 ;
b10 I
b10 X
b0 7
b0 A
b0 Y
18
b1110000010110000 &
b1110000010110000 q
b111000100011100000100010 3
b111000100011100000100010 b
b110 Z
b1011 5
b1011 @
b1011 _
b1011 s
b1 =
b1 C
b1 r
b1110000010110000 :
b1110000010110000 D
b1110000010110000 e
1!
#820
b101010 "
0!
#830
b1100 &
b1100 q
b0 [
1)
b1100 :
b1100 D
b1100 e
b111 Z
1!
#840
b101011 "
0!
#850
b110100 k
b110100 9
b110100 E
b110100 f
1$
b100 G
b110000 F
b1 [
0)
1+
12
b0 ;
b0 I
b0 X
b1 7
b1 A
b1 Y
08
b0 Z
1!
#860
b101100 "
0!
#870
0$
b1110000010001000 G
b1110000010111100 k
b1110000010111100 9
b1110000010111100 E
b1110000010111100 f
b110100 &
b110100 q
b110 [
0+
02
b11 7
b11 A
b11 Y
b100010 H
b11100000100010 (
b11100000100010 >
b11100000100010 ^
b11100000100010 ]
b101 p
b10 m
b1100 o
b111 l
b111000100011100000100010 g
b10101100011001110000000001000100 `
b110100 6
b110100 a
b110100 i
b110100 F
b110100 :
b110100 D
b110100 e
b1 Z
b111000100011100000100010 1
b111000100011100000100010 c
b110100 -
b110100 ?
b110100 j
1!
#880
b101101 "
0!
#890
b111 k
b111 9
b111 E
b111 f
b110 <
b110 B
b110 J
b101 G
b1100 F
b111 [
b10 ;
b10 I
b10 X
b0 7
b0 A
b0 Y
18
b1110000010111100 &
b1110000010111100 q
b10101100011001110000000001000100 3
b10101100011001110000000001000100 b
b110 Z
b101 5
b101 @
b101 _
b101 s
b1100 =
b1100 C
b1100 r
b1110000010111100 :
b1110000010111100 D
b1110000010111100 e
1!
#900
b101110 "
0!
#910
b111 &
b111 q
b0 [
1)
b111 :
b111 D
b111 e
b111 Z
1!
#920
b101111 "
0!
#930
b111000 k
b111000 9
b111000 E
b111000 f
1$
b10 <
b10 B
b10 J
b100 G
b110100 F
b1 [
0)
1+
12
b0 ;
b0 I
b0 X
b1 7
b1 A
b1 Y
08
b0 Z
b111 o
1!
#940
b110000 "
0!
#950
0$
b100010000 G
b101001000 k
b0 '
b0 n
b101001000 9
b101001000 E
b101001000 f
b111000 &
b111000 q
b10 [
0+
02
b11 7
b11 A
b11 Y
b100 H
b1000100 (
b1000100 >
b1000100 ^
b1000100 ]
b111 p
b111 m
b1100 o
b11 l
b101011 K
b11001110000000001000100 g
b10001100000000100000000001010000 `
b111000 6
b111000 a
b111000 i
b111000 F
b111000 :
b111000 D
b111000 e
b111 =
b111 C
b111 r
b1 Z
b10101100011001110000000001000100 1
b10101100011001110000000001000100 c
b111000 -
b111000 ?
b111000 j
1!
#960
b110001 "
0!
#970
b1010000 k
b1010000 9
b1010000 E
b1010000 f
b1000100 G
b1100 F
b101 [
b10 7
b10 A
b10 Y
18
b101001000 &
b101001000 q
b10001100000000100000000001010000 3
b10001100000000100000000001010000 b
b10 Z
b111 5
b111 @
b111 _
b111 s
b1100 =
b1100 C
b1100 r
b101001000 :
b101001000 D
b101001000 e
1!
#980
b110010 "
0!
#990
bx `
b1010000 6
b1010000 a
b1010000 i
b1010000 &
b1010000 q
b0 [
1/
10
b1010000 :
b1010000 D
b1010000 e
b101 Z
1!
#1000
b110011 "
0!
#1010
b111100 k
b111100 9
b111100 E
b111100 f
1$
b100 G
b111000 F
b111000 6
b111000 a
b111000 i
b1 [
1+
0/
12
b1 7
b1 A
b1 Y
08
00
b10001100000000100000000001010000 `
bx 3
bx b
b0 Z
1!
#1020
b110100 "
0!
#1030
0$
b101000000 G
b101111100 k
b101111100 9
b101111100 E
b101111100 f
b111100 &
b111100 q
b10 [
0+
02
b11 7
b11 A
b11 Y
b10000 H
b1010000 (
b1010000 >
b1010000 ^
b1010000 ]
b101 p
b10 m
b0 o
b0 l
b100011 K
b100000000001010000 g
b1000000000000000000000010001 `
b111100 6
b111100 a
b111100 i
b111100 F
b111100 :
b111100 D
b111100 e
b1 Z
b10001100000000100000000001010000 1
b10001100000000100000000001010000 c
b10001100000000100000000001010000 3
b10001100000000100000000001010000 b
b111100 -
b111100 ?
b111100 j
1!
#1040
b110101 "
0!
#1050
b1010000 k
b1010000 9
b1010000 E
b1010000 f
b1010000 G
b0 F
b11 [
b10 7
b10 A
b10 Y
18
b101111100 &
b101111100 q
b1000000000000000000000010001 3
b1000000000000000000000010001 b
b10 Z
b101 5
b101 @
b101 _
b101 s
b0 =
b0 C
b0 r
b101111100 :
b101111100 D
b101111100 e
1!
#1060
b110110 "
0!
#1070
b111 `
b1010000 6
b1010000 a
b1010000 i
b1010000 &
b1010000 q
b100 [
10
b1010000 :
b1010000 D
b1010000 e
b11 Z
1!
#1080
b110111 "
0!
#1090
b111 &
b111 q
b10 '
b10 n
b0 [
1)
1.
0*
b111 3
b111 b
b100 Z
1!
#1100
b111000 "
0!
#1110
b1000000 k
b1000000 9
b1000000 E
b1000000 f
1$
b100 G
b111100 F
b1000000000000000000000010001 `
b111100 6
b111100 a
b111100 i
b1 [
0)
1+
12
b1 7
b1 A
b1 Y
08
00
b111 p
b0 Z
1!
#1120
b111001 "
0!
#1130
b10000100 k
b0 '
b0 n
0$
b1000100 G
b10000100 9
b10000100 E
b10000100 f
b100000000000100000000000000001 `
b1000000 6
b1000000 a
b1000000 i
b10001 H
b10001 (
b10001 >
b10001 ^
b10001 ]
b0 p
b0 m
b10 K
b10001 g
b1000000000000000000000010001 &
b1000000000000000000000010001 q
b1011 [
0+
02
b11 7
b11 A
b11 Y
b1000000 F
b1000000 -
b1000000 ?
b1000000 j
b1000000000000000000000010001 1
b1000000000000000000000010001 c
b1000000000000000000000010001 3
b1000000000000000000000010001 b
b1 Z
b111 5
b111 @
b111 _
b111 s
b1000000 :
b1000000 D
b1000000 e
1!
#1140
b111010 "
0!
#1150
1$
b1000100 k
b0 [
1+
b10 ,
b10 \
b10 h
b100000000000100000000000000001 &
b100000000000100000000000000001 q
b10000100 :
b10000100 D
b10000100 e
b0 5
b0 @
b0 _
b0 s
b1011 Z
b100000000000100000000000000001 3
b100000000000100000000000000001 b
1!
#1160
b111011 "
0!
#1170
b1001000 9
b1001000 E
b1001000 f
b10101100000000100000000001010100 `
b1000100 6
b1000100 a
b1000100 i
b100 G
b1000100 F
b1001000 k
b1 [
12
b0 ,
b0 \
b0 h
b1 7
b1 A
b1 Y
b1000100 -
b1000100 ?
b1000100 j
b0 Z
1!
#1180
b111100 "
0!
#1190
0$
b101010000 G
b110011000 k
b10 '
b10 n
b110011000 9
b110011000 E
b110011000 f
b10 [
0+
02
b11 7
b11 A
b11 Y
b10100 H
b1010100 (
b1010100 >
b1010100 ^
b1010100 ]
b111 p
b10 m
b101011 K
b100000000001010100 g
b10101100000000100000000001010100 &
b10101100000000100000000001010100 q
bx `
b1001000 6
b1001000 a
b1001000 i
b1001000 F
b1001000 :
b1001000 D
b1001000 e
b1 Z
b10101100000000100000000001010100 1
b10101100000000100000000001010100 c
b10101100000000100000000001010100 3
b10101100000000100000000001010100 b
b1001000 -
b1001000 ?
b1001000 j
1!
#1200
b111101 "
0!
#1210
b1010100 k
b1010100 9
b1010100 E
b1010100 f
b1010100 G
b0 F
bx &
bx q
b101 [
b10 7
b10 A
b10 Y
18
bx 3
bx b
b10 Z
b111 5
b111 @
b111 _
b111 s
b110011000 :
b110011000 D
b110011000 e
1!
#1220
b111110 "
0!
#1230
b1010100 6
b1010100 a
b1010100 i
b0 [
1/
10
b1010100 :
b1010100 D
b1010100 e
b101 Z
1!
#1240
b111111 "
0!
#1250
b1001100 k
b1001100 9
b1001100 E
b1001100 f
1$
b100 G
b1001000 F
b1001000 6
b1001000 a
b1001000 i
b1 [
1+
0/
12
b1 7
b1 A
b1 Y
08
00
bx `
b0 Z
1!
#1260
b1000000 "
0!
#1270
x%
0$
bx00 G
bx k
bx '
bx n
bx 9
bx E
bx f
0+
02
b11 7
b11 A
b11 Y
bx H
bx (
bx >
bx ^
bx ]
bx p
bx m
bx o
bx l
bx K
bx g
b1001100 6
b1001100 a
b1001100 i
b1001100 F
b1001100 :
b1001100 D
b1001100 e
b1 Z
bx 1
bx c
b1001100 -
b1001100 ?
b1001100 j
1!
#1280
b1000001 "
0!
#1290
bx 5
bx @
bx _
bx s
bx =
bx C
bx r
bx :
bx D
bx e
1!
#1300
b1000010 "
0!
#1310
1!
#1320
b1000011 "
0!
#1330
1!
#1340
b1000100 "
0!
#1350
1!
#1360
b1000101 "
0!
#1370
1!
#1380
b1000110 "
0!
#1390
1!
#1400
b1000111 "
0!
#1410
1!
#1420
b1001000 "
0!
